[
    {
        "name": "Afghanistan",
        "iso": "AF / AFG",
        "code": "93"
    },
    {
        "name": "Albania",
        "iso": "AL / ALB",
        "code": "355"
    },
    {
        "name": "Algeria",
        "iso": "DZ / DZA",
        "code": "213"
    },
    {
        "name": "American Samoa",
        "iso": "AS / ASM",
        "code": "1 684"
    },
    {
        "name": "Andorra",
        "iso": "AD / AND",
        "code": "376"
    },
    {
        "name": "Angola",
        "iso": "AO / AGO",
        "code": "244"
    },
    {
        "name": "Anguilla",
        "iso": "AI / AIA",
        "code": "1 264"
    },
    {
        "name": "Antarctica",
        "iso": "AQ / ATA",
        "code": "672"
    },
    {
        "name": "Antigua and Barbuda",
        "iso": "AG / ATG",
        "code": "1 268"
    },
    {
        "name": "Argentina",
        "iso": "AR / ARG",
        "code": "54"
    },
    {
        "name": "Armenia",
        "iso": "AM / ARM",
        "code": "374"
    },
    {
        "name": "Aruba",
        "iso": "AW / ABW",
        "code": "297"
    },
    {
        "name": "Australia",
        "iso": "AU / AUS",
        "code": "61"
    },
    {
        "name": "Austria",
        "iso": "AT / AUT",
        "code": "43"
    },
    {
        "name": "Azerbaijan",
        "iso": "AZ / AZE",
        "code": "994"
    },
    {
        "name": "Bahamas",
        "iso": "BS / BHS",
        "code": "1 242"
    },
    {
        "name": "Bahrain",
        "iso": "BH / BHR",
        "code": "973"
    },
    {
        "name": "Bangladesh",
        "iso": "BD / BGD",
        "code": "880"
    },
    {
        "name": "Barbados",
        "iso": "BB / BRB",
        "code": "1 246"
    },
    {
        "name": "Belarus",
        "iso": "BY / BLR",
        "code": "375"
    },
    {
        "name": "Belgium",
        "iso": "BE / BEL",
        "code": "32"
    },
    {
        "name": "Belize",
        "iso": "BZ / BLZ",
        "code": "501"
    },
    {
        "name": "Benin",
        "iso": "BJ / BEN",
        "code": "229"
    },
    {
        "name": "Bermuda",
        "iso": "BM / BMU",
        "code": "1 441"
    },
    {
        "name": "Bhutan",
        "iso": "BT / BTN",
        "code": "975"
    },
    {
        "name": "Bolivia",
        "iso": "BO / BOL",
        "code": "591"
    },
    {
        "name": "Bosnia and Herzegovina",
        "iso": "BA / BIH",
        "code": "387"
    },
    {
        "name": "Botswana",
        "iso": "BW / BWA",
        "code": "267"
    },
    {
        "name": "Brazil",
        "iso": "BR / BRA",
        "code": "55"
    },
    {
        "name": "British Virgin Islands",
        "iso": "VG / VGB",
        "code": "1 284"
    },
    {
        "name": "Brunei",
        "iso": "BN / BRN",
        "code": "673"
    },
    {
        "name": "Bulgaria",
        "iso": "BG / BGR",
        "code": "359"
    },
    {
        "name": "Burkina Faso",
        "iso": "BF / BFA",
        "code": "226"
    },
    {
        "name": "Burma (Myanmar)",
        "iso": "MM / MMR",
        "code": "95"
    },
    {
        "name": "Burundi",
        "iso": "BI / BDI",
        "code": "257"
    },
    {
        "name": "Cambodia",
        "iso": "KH / KHM",
        "code": "855"
    },
    {
        "name": "Cameroon",
        "iso": "CM / CMR",
        "code": "237"
    },
    {
        "name": "Canada",
        "iso": "CA / CAN",
        "code": "1"
    },
    {
        "name": "Cape Verde",
        "iso": "CV / CPV",
        "code": "238"
    },
    {
        "name": "Cayman Islands",
        "iso": "KY / CYM",
        "code": "1 345"
    },
    {
        "name": "Central African Republic",
        "iso": "CF / CAF",
        "code": "236"
    },
    {
        "name": "Chad",
        "iso": "TD / TCD",
        "code": "235"
    },
    {
        "name": "Chile",
        "iso": "CL / CHL",
        "code": "56"
    },
    {
        "name": "China",
        "iso": "CN / CHN",
        "code": "86"
    },
    {
        "name": "Christmas Island",
        "iso": "CX / CXR",
        "code": "61"
    },
    {
        "name": "Cocos (Keeling) Islands",
        "iso": "CC / CCK",
        "code": "61"
    },
    {
        "name": "Colombia",
        "iso": "CO / COL",
        "code": "57"
    },
    {
        "name": "Comoros",
        "iso": "KM / COM",
        "code": "269"
    },
    {
        "name": "Cook Islands",
        "iso": "CK / COK",
        "code": "682"
    },
    {
        "name": "Costa Rica",
        "iso": "CR / CRC",
        "code": "506"
    },
    {
        "name": "Croatia",
        "iso": "HR / HRV",
        "code": "385"
    },
    {
        "name": "Cuba",
        "iso": "CU / CUB",
        "code": "53"
    },
    {
        "name": "Cyprus",
        "iso": "CY / CYP",
        "code": "357"
    },
    {
        "name": "Czech Republic",
        "iso": "CZ / CZE",
        "code": "420"
    },
    {
        "name": "Democratic Republic of the Congo",
        "iso": "CD / COD",
        "code": "243"
    },
    {
        "name": "Denmark",
        "iso": "DK / DNK",
        "code": "45"
    },
    {
        "name": "Djibouti",
        "iso": "DJ / DJI",
        "code": "253"
    },
    {
        "name": "Dominica",
        "iso": "DM / DMA",
        "code": "1 767"
    },
    {
        "name": "Dominican Republic",
        "iso": "DO / DOM",
        "code": "1 809"
    },
    {
        "name": "Ecuador",
        "iso": "EC / ECU",
        "code": "593"
    },
    {
        "name": "Egypt",
        "iso": "EG / EGY",
        "code": "20"
    },
    {
        "name": "El Salvador",
        "iso": "SV / SLV",
        "code": "503"
    },
    {
        "name": "Equatorial Guinea",
        "iso": "GQ / GNQ",
        "code": "240"
    },
    {
        "name": "Eritrea",
        "iso": "ER / ERI",
        "code": "291"
    },
    {
        "name": "Estonia",
        "iso": "EE / EST",
        "code": "372"
    },
    {
        "name": "Ethiopia",
        "iso": "ET / ETH",
        "code": "251"
    },
    {
        "name": "Falkland Islands",
        "iso": "FK / FLK",
        "code": "500"
    },
    {
        "name": "Faroe Islands",
        "iso": "FO / FRO",
        "code": "298"
    },
    {
        "name": "Fiji",
        "iso": "FJ / FJI",
        "code": "679"
    },
    {
        "name": "Finland",
        "iso": "FI / FIN",
        "code": "358"
    },
    {
        "name": "France",
        "iso": "FR / FRA",
        "code": "33"
    },
    {
        "name": "French Polynesia",
        "iso": "PF / PYF",
        "code": "689"
    },
    {
        "name": "Gabon",
        "iso": "GA / GAB",
        "code": "241"
    },
    {
        "name": "Gambia",
        "iso": "GM / GMB",
        "code": "220"
    },
    {
        "name": "Gaza Strip",
        "iso": "/ ",
        "code": "970"
    },
    {
        "name": "Georgia",
        "iso": "GE / GEO",
        "code": "995"
    },
    {
        "name": "Germany",
        "iso": "DE / DEU",
        "code": "49"
    },
    {
        "name": "Ghana",
        "iso": "GH / GHA",
        "code": "233"
    },
    {
        "name": "Gibraltar",
        "iso": "GI / GIB",
        "code": "350"
    },
    {
        "name": "Greece",
        "iso": "GR / GRC",
        "code": "30"
    },
    {
        "name": "Greenland",
        "iso": "GL / GRL",
        "code": "299"
    },
    {
        "name": "Grenada",
        "iso": "GD / GRD",
        "code": "1 473"
    },
    {
        "name": "Guam",
        "iso": "GU / GUM",
        "code": "1 671"
    },
    {
        "name": "Guatemala",
        "iso": "GT / GTM",
        "code": "502"
    },
    {
        "name": "Guinea",
        "iso": "GN / GIN",
        "code": "224"
    },
    {
        "name": "Guinea-Bissau",
        "iso": "GW / GNB",
        "code": "245"
    },
    {
        "name": "Guyana",
        "iso": "GY / GUY",
        "code": "592"
    },
    {
        "name": "Haiti",
        "iso": "HT / HTI",
        "code": "509"
    },
    {
        "name": "Holy See (Vatican City)",
        "iso": "VA / VAT",
        "code": "39"
    },
    {
        "name": "Honduras",
        "iso": "HN / HND",
        "code": "504"
    },
    {
        "name": "Hong Kong",
        "iso": "HK / HKG",
        "code": "852"
    },
    {
        "name": "Hungary",
        "iso": "HU / HUN",
        "code": "36"
    },
    {
        "name": "Iceland",
        "iso": "IS / IS",
        "code": "354"
    },
    {
        "name": "India",
        "iso": "IN / IND",
        "code": "91"
    },
    {
        "name": "Indonesia",
        "iso": "ID / IDN",
        "code": "62"
    },
    {
        "name": "Iran",
        "iso": "IR / IRN",
        "code": "98"
    },
    {
        "name": "Iraq",
        "iso": "IQ / IRQ",
        "code": "964"
    },
    {
        "name": "Ireland",
        "iso": "IE / IRL",
        "code": "353"
    },
    {
        "name": "Isle of Man",
        "iso": "IM / IMN",
        "code": "44"
    },
    {
        "name": "Israel",
        "iso": "IL / ISR",
        "code": "972"
    },
    {
        "name": "Italy",
        "iso": "IT / ITA",
        "code": "39"
    },
    {
        "name": "Ivory Coast",
        "iso": "CI / CIV",
        "code": "225"
    },
    {
        "name": "Jamaica",
        "iso": "JM / JAM",
        "code": "1 876"
    },
    {
        "name": "Japan",
        "iso": "JP / JPN",
        "code": "81"
    },
    {
        "name": "Jordan",
        "iso": "JO / JOR",
        "code": "962"
    },
    {
        "name": "Kazakhstan",
        "iso": "KZ / KAZ",
        "code": "7"
    },
    {
        "name": "Kenya",
        "iso": "KE / KEN",
        "code": "254"
    },
    {
        "name": "Kiribati",
        "iso": "KI / KIR",
        "code": "686"
    },
    {
        "name": "Kosovo",
        "iso": "/ ",
        "code": "381"
    },
    {
        "name": "Kuwait",
        "iso": "KW / KWT",
        "code": "965"
    },
    {
        "name": "Kyrgyzstan",
        "iso": "KG / KGZ",
        "code": "996"
    },
    {
        "name": "Laos",
        "iso": "LA / LAO",
        "code": "856"
    },
    {
        "name": "Latvia",
        "iso": "LV / LVA",
        "code": "371"
    },
    {
        "name": "Lebanon",
        "iso": "LB / LBN",
        "code": "961"
    },
    {
        "name": "Lesotho",
        "iso": "LS / LSO",
        "code": "266"
    },
    {
        "name": "Liberia",
        "iso": "LR / LBR",
        "code": "231"
    },
    {
        "name": "Libya",
        "iso": "LY / LBY",
        "code": "218"
    },
    {
        "name": "Liechtenstein",
        "iso": "LI / LIE",
        "code": "423"
    },
    {
        "name": "Lithuania",
        "iso": "LT / LTU",
        "code": "370"
    },
    {
        "name": "Luxembourg",
        "iso": "LU / LUX",
        "code": "352"
    },
    {
        "name": "Macau",
        "iso": "MO / MAC",
        "code": "853"
    },
    {
        "name": "Macedonia",
        "iso": "MK / MKD",
        "code": "389"
    },
    {
        "name": "Madagascar",
        "iso": "MG / MDG",
        "code": "261"
    },
    {
        "name": "Malawi",
        "iso": "MW / MWI",
        "code": "265"
    },
    {
        "name": "Malaysia",
        "iso": "MY / MYS",
        "code": "60"
    },
    {
        "name": "Maldives",
        "iso": "MV / MDV",
        "code": "960"
    },
    {
        "name": "Mali",
        "iso": "ML / MLI",
        "code": "223"
    },
    {
        "name": "Malta",
        "iso": "MT / MLT",
        "code": "356"
    },
    {
        "name": "Marshall Islands",
        "iso": "MH / MHL",
        "code": "692"
    },
    {
        "name": "Mauritania",
        "iso": "MR / MRT",
        "code": "222"
    },
    {
        "name": "Mauritius",
        "iso": "MU / MUS",
        "code": "230"
    },
    {
        "name": "Mayotte",
        "iso": "YT / MYT",
        "code": "262"
    },
    {
        "name": "Mexico",
        "iso": "MX / MEX",
        "code": "52"
    },
    {
        "name": "Micronesia",
        "iso": "FM / FSM",
        "code": "691"
    },
    {
        "name": "Moldova",
        "iso": "MD / MDA",
        "code": "373"
    },
    {
        "name": "Monaco",
        "iso": "MC / MCO",
        "code": "377"
    },
    {
        "name": "Mongolia",
        "iso": "MN / MNG",
        "code": "976"
    },
    {
        "name": "Montenegro",
        "iso": "ME / MNE",
        "code": "382"
    },
    {
        "name": "Montserrat",
        "iso": "MS / MSR",
        "code": "1 664"
    },
    {
        "name": "Morocco",
        "iso": "MA / MAR",
        "code": "212"
    },
    {
        "name": "Mozambique",
        "iso": "MZ / MOZ",
        "code": "258"
    },
    {
        "name": "Namibia",
        "iso": "NA / NAM",
        "code": "264"
    },
    {
        "name": "Nauru",
        "iso": "NR / NRU",
        "code": "674"
    },
    {
        "name": "Nepal",
        "iso": "NP / NPL",
        "code": "977"
    },
    {
        "name": "Netherlands",
        "iso": "NL / NLD",
        "code": "31"
    },
    {
        "name": "Netherlands Antilles",
        "iso": "AN / ANT",
        "code": "599"
    },
    {
        "name": "New Caledonia",
        "iso": "NC / NCL",
        "code": "687"
    },
    {
        "name": "New Zealand",
        "iso": "NZ / NZL",
        "code": "64"
    },
    {
        "name": "Nicaragua",
        "iso": "NI / NIC",
        "code": "505"
    },
    {
        "name": "Niger",
        "iso": "NE / NER",
        "code": "227"
    },
    {
        "name": "Nigeria",
        "iso": "NG / NGA",
        "code": "234"
    },
    {
        "name": "Niue",
        "iso": "NU / NIU",
        "code": "683"
    },
    {
        "name": "Norfolk Island",
        "iso": "/ NFK",
        "code": "672"
    },
    {
        "name": "North Korea",
        "iso": "KP / PRK",
        "code": "850"
    },
    {
        "name": "Northern Mariana Islands",
        "iso": "MP / MNP",
        "code": "1 670"
    },
    {
        "name": "Norway",
        "iso": "NO / NOR",
        "code": "47"
    },
    {
        "name": "Oman",
        "iso": "OM / OMN",
        "code": "968"
    },
    {
        "name": "Pakistan",
        "iso": "PK / PAK",
        "code": "92"
    },
    {
        "name": "Palau",
        "iso": "PW / PLW",
        "code": "680"
    },
    {
        "name": "Panama",
        "iso": "PA / PAN",
        "code": "507"
    },
    {
        "name": "Papua New Guinea",
        "iso": "PG / PNG",
        "code": "675"
    },
    {
        "name": "Paraguay",
        "iso": "PY / PRY",
        "code": "595"
    },
    {
        "name": "Peru",
        "iso": "PE / PER",
        "code": "51"
    },
    {
        "name": "Philippines",
        "iso": "PH / PHL",
        "code": "63"
    },
    {
        "name": "Pitcairn Islands",
        "iso": "PN / PCN",
        "code": "870"
    },
    {
        "name": "Poland",
        "iso": "PL / POL",
        "code": "48"
    },
    {
        "name": "Portugal",
        "iso": "PT / PRT",
        "code": "351"
    },
    {
        "name": "Puerto Rico",
        "iso": "PR / PRI",
        "code": "1"
    },
    {
        "name": "Qatar",
        "iso": "QA / QAT",
        "code": "974"
    },
    {
        "name": "Republic of the Congo",
        "iso": "CG / COG",
        "code": "242"
    },
    {
        "name": "Romania",
        "iso": "RO / ROU",
        "code": "40"
    },
    {
        "name": "Russia",
        "iso": "RU / RUS",
        "code": "7"
    },
    {
        "name": "Rwanda",
        "iso": "RW / RWA",
        "code": "250"
    },
    {
        "name": "Saint Barthelemy",
        "iso": "BL / BLM",
        "code": "590"
    },
    {
        "name": "Saint Helena",
        "iso": "SH / SHN",
        "code": "290"
    },
    {
        "name": "Saint Kitts and Nevis",
        "iso": "KN / KNA",
        "code": "1 869"
    },
    {
        "name": "Saint Lucia",
        "iso": "LC / LCA",
        "code": "1 758"
    },
    {
        "name": "Saint Martin",
        "iso": "MF / MAF",
        "code": "1 599"
    },
    {
        "name": "Saint Pierre and Miquelon",
        "iso": "PM / SPM",
        "code": "508"
    },
    {
        "name": "Saint Vincent and the Grenadines",
        "iso": "VC / VCT",
        "code": "1 784"
    },
    {
        "name": "Samoa",
        "iso": "WS / WSM",
        "code": "685"
    },
    {
        "name": "San Marino",
        "iso": "SM / SMR",
        "code": "378"
    },
    {
        "name": "Sao Tome and Principe",
        "iso": "ST / STP",
        "code": "239"
    },
    {
        "name": "Saudi Arabia",
        "iso": "SA / SAU",
        "code": "966"
    },
    {
        "name": "Senegal",
        "iso": "SN / SEN",
        "code": "221"
    },
    {
        "name": "Serbia",
        "iso": "RS / SRB",
        "code": "381"
    },
    {
        "name": "Seychelles",
        "iso": "SC / SYC",
        "code": "248"
    },
    {
        "name": "Sierra Leone",
        "iso": "SL / SLE",
        "code": "232"
    },
    {
        "name": "Singapore",
        "iso": "SG / SGP",
        "code": "65"
    },
    {
        "name": "Slovakia",
        "iso": "SK / SVK",
        "code": "421"
    },
    {
        "name": "Slovenia",
        "iso": "SI / SVN",
        "code": "386"
    },
    {
        "name": "Solomon Islands",
        "iso": "SB / SLB",
        "code": "677"
    },
    {
        "name": "Somalia",
        "iso": "SO / SOM",
        "code": "252"
    },
    {
        "name": "South Africa",
        "iso": "ZA / ZAF",
        "code": "27"
    },
    {
        "name": "South Korea",
        "iso": "KR / KOR",
        "code": "82"
    },
    {
        "name": "Spain",
        "iso": "ES / ESP",
        "code": "34"
    },
    {
        "name": "Sri Lanka",
        "iso": "LK / LKA",
        "code": "94"
    },
    {
        "name": "Sudan",
        "iso": "SD / SDN",
        "code": "249"
    },
    {
        "name": "Suriname",
        "iso": "SR / SUR",
        "code": "597"
    },
    {
        "name": "Swaziland",
        "iso": "SZ / SWZ",
        "code": "268"
    },
    {
        "name": "Sweden",
        "iso": "SE / SWE",
        "code": "46"
    },
    {
        "name": "Switzerland",
        "iso": "CH / CHE",
        "code": "41"
    },
    {
        "name": "Syria",
        "iso": "SY / SYR",
        "code": "963"
    },
    {
        "name": "Taiwan",
        "iso": "TW / TWN",
        "code": "886"
    },
    {
        "name": "Tajikistan",
        "iso": "TJ / TJK",
        "code": "992"
    },
    {
        "name": "Tanzania",
        "iso": "TZ / TZA",
        "code": "255"
    },
    {
        "name": "Thailand",
        "iso": "TH / THA",
        "code": "66"
    },
    {
        "name": "Timor-Leste",
        "iso": "TL / TLS",
        "code": "670"
    },
    {
        "name": "Togo",
        "iso": "TG / TGO",
        "code": "228"
    },
    {
        "name": "Tokelau",
        "iso": "TK / TKL",
        "code": "690"
    },
    {
        "name": "Tonga",
        "iso": "TO / TON",
        "code": "676"
    },
    {
        "name": "Trinidad and Tobago",
        "iso": "TT / TTO",
        "code": "1 868"
    },
    {
        "name": "Tunisia",
        "iso": "TN / TUN",
        "code": "216"
    },
    {
        "name": "Turkey",
        "iso": "TR / TUR",
        "code": "90"
    },
    {
        "name": "Turkmenistan",
        "iso": "TM / TKM",
        "code": "993"
    },
    {
        "name": "Turks and Caicos Islands",
        "iso": "TC / TCA",
        "code": "1 649"
    },
    {
        "name": "Tuvalu",
        "iso": "TV / TUV",
        "code": "688"
    },
    {
        "name": "Uganda",
        "iso": "UG / UGA",
        "code": "256"
    },
    {
        "name": "Ukraine",
        "iso": "UA / UKR",
        "code": "380"
    },
    {
        "name": "United Arab Emirates",
        "iso": "AE / ARE",
        "code": "971"
    },
    {
        "name": "United Kingdom",
        "iso": "GB / GBR",
        "code": "44"
    },
    {
        "name": "United States",
        "iso": "US / USA",
        "code": "1"
    },
    {
        "name": "Uruguay",
        "iso": "UY / URY",
        "code": "598"
    },
    {
        "name": "US Virgin Islands",
        "iso": "VI / VIR",
        "code": "1 340"
    },
    {
        "name": "Uzbekistan",
        "iso": "UZ / UZB",
        "code": "998"
    },
    {
        "name": "Vanuatu",
        "iso": "VU / VUT",
        "code": "678"
    },
    {
        "name": "Venezuela",
        "iso": "VE / VEN",
        "code": "58"
    },
    {
        "name": "Vietnam",
        "iso": "VN / VNM",
        "code": "84"
    },
    {
        "name": "Wallis and Futuna",
        "iso": "WF / WLF",
        "code": "681"
    },
    {
        "name": "West Bank",
        "iso": "/ ",
        "code": "970"
    },
    {
        "name": "Yemen",
        "iso": "YE / YEM",
        "code": "967"
    },
    {
        "name": "Zambia",
        "iso": "ZM / ZMB",
        "code": "260"
    },
    {
        "name": "Zimbabwe",
        "iso": "ZW / ZWE",
        "code": "263"
    }
]